{
  "npmScope": "react-v1",
  "affected": {
    "defaultBase": "main"
  },
  "cli": {
    "defaultCollection": "@nrwl/react"
  },
  "implicitDependencies": {
    "package.json": {
      "dependencies": "*",
      "devDependencies": "*"
    },
    ".eslintrc.json": "*"
  },
  "tasksRunnerOptions": {
    "default": {
      "runner": "@nrwl/workspace/tasks-runners/default",
      "options": {
        "cacheableOperations": [
          "build",
          "lint",
          "test",
          "e2e",
          "build-storybook"
        ]
      }
    }
  },
  "targetDependencies": {
    "build": [
      {
        "target": "build",
        "projects": "dependencies"
      }
    ]
  },
  "generators": {
    "@nrwl/react": {
      "application": {
        "style": "@emotion/styled",
        "linter": "eslint",
        "babel": true
      },
      "component": {
        "style": "@emotion/styled"
      },
      "library": {
        "style": "@emotion/styled",
        "linter": "eslint"
      }
    }
  },
  "defaultProject": "yelp-lister"
}
